<svg xmlns="http://www.w3.org/2000/svg" width="14.8" height="14.8" viewBox="0 0 14.8 14.8">
  <g id="Group_2433" data-name="Group 2433" transform="translate(-1325.202 -26.413)">
    <path id="Path_3849" data-name="Path 3849" d="M1326.247,30.036a7.336,7.336,0,0,0-.777,1.83h3.025Z" fill="#41479b"/>
    <path id="Path_3850" data-name="Path 3850" d="M1325.47,35.76a7.359,7.359,0,0,0,.777,1.831l2.248-1.831Z" fill="#41479b"/>
    <path id="Path_3851" data-name="Path 3851" d="M1331.035,26.583a7.374,7.374,0,0,0-3.419,1.773l3.419,2.784Z" fill="#41479b"/>
    <path id="Path_3852" data-name="Path 3852" d="M1327.616,39.27a7.374,7.374,0,0,0,3.419,1.773V36.486Z" fill="#41479b"/>
    <path id="Path_3853" data-name="Path 3853" d="M1338.957,37.591a7.359,7.359,0,0,0,.777-1.831h-3.025Z" fill="#41479b"/>
    <path id="Path_3854" data-name="Path 3854" d="M1339.734,31.866a7.336,7.336,0,0,0-.777-1.83l-2.248,1.83Z" fill="#41479b"/>
    <path id="Path_3855" data-name="Path 3855" d="M1337.588,28.356a7.379,7.379,0,0,0-3.419-1.773V31.14Z" fill="#41479b"/>
    <path id="Path_3856" data-name="Path 3856" d="M1334.169,41.043a7.379,7.379,0,0,0,3.419-1.773l-3.419-2.784Z" fill="#41479b"/>
    <path id="Path_3857" data-name="Path 3857" d="M1336.709,31.866l2.248-1.83a7.6,7.6,0,0,0-.483-.714l-3.154,2.544h-1.151l3.838-3.1c-.134-.144-.274-.281-.419-.414l-3.419,2.784V26.583c-.206-.045-.415-.077-.627-.1v6.166h6.359a7.144,7.144,0,0,0-.167-.779Z" fill="#f5f5f5"/>
    <path id="Path_3858" data-name="Path 3858" d="M1335.811,35.76l2.847,2.3c.106-.151.2-.307.3-.466l-2.248-1.831h3.025a7.144,7.144,0,0,0,.167-.779h-6.359v6.166c.212-.027.421-.059.627-.1V36.486l3.419,2.784a7.437,7.437,0,0,0,.626-.642l-3.554-2.868Z" fill="#f5f5f5"/>
    <path id="Path_3859" data-name="Path 3859" d="M1328.495,35.76l-2.248,1.831a7.644,7.644,0,0,0,.477.705l3.143-2.536h1.151l-3.828,3.088c.136.147.278.287.426.422l3.419-2.784v4.557c.206.045.415.077.627.1V34.981H1325.3a7.144,7.144,0,0,0,.167.779Z" fill="#f5f5f5"/>
    <path id="Path_3860" data-name="Path 3860" d="M1331.035,31.14l-3.419-2.784a7.473,7.473,0,0,0-.684.706l3.476,2.8h-1.151l-2.763-2.229c-.088.129-.167.264-.247.4l2.248,1.83h-3.025a7.144,7.144,0,0,0-.167.779h6.359V26.479c-.212.027-.422.059-.627.1Z" fill="#f5f5f5"/>
    <path id="Path_3861" data-name="Path 3861" d="M1333.542,34.981h6.359a6.807,6.807,0,0,0,0-2.336h-6.359V26.479a6.727,6.727,0,0,0-1.88,0v6.166H1325.3a6.807,6.807,0,0,0,0,2.336h6.359v6.166a6.727,6.727,0,0,0,1.88,0Z" fill="#ff4b55"/>
    <path id="Path_3862" data-name="Path 3862" d="M1329.867,35.76h0l-3.143,2.536c.146.192.3.376.466.552l3.828-3.088Z" fill="#ff4b55"/>
    <path id="Path_3863" data-name="Path 3863" d="M1335.811,35.76h-1.151l3.554,2.868q.235-.274.444-.571Z" fill="#ff4b55"/>
    <path id="Path_3864" data-name="Path 3864" d="M1330.408,31.866l-3.476-2.8q-.233.276-.438.575l2.763,2.229Z" fill="#ff4b55"/>
    <path id="Path_3865" data-name="Path 3865" d="M1335.32,31.866l3.154-2.544q-.22-.288-.467-.552l-3.838,3.1Z" fill="#ff4b55"/>
  </g>
</svg>
