<?xml version="1.0" encoding="utf-8"?>
<!-- Generator: Adobe Illustrator 23.0.1, SVG Export Plug-In . SVG Version: 6.00 Build 0)  -->
<svg version="1.1" id="Layer_1" xmlns="http://www.w3.org/2000/svg" xmlns:xlink="http://www.w3.org/1999/xlink" x="0px" y="0px"
	 viewBox="0 0 90 90" style="enable-background:new 0 0 90 90;" xml:space="preserve">
<style type="text/css">
	.st0{fill:#FFFFFF;}
	.st1{fill:#F5740E;}
</style>
<g id="Group_1368" transform="translate(-558.161 -69)">
	<g transform="matrix(1, 0, 0, 1, 558.16, 69)">
		<circle id="Ellipse_18-2" class="st0" cx="45" cy="45" r="45"/>
	</g>
	<circle id="Ellipse_120" class="st1" cx="603.2" cy="114" r="42"/>
	<g id="Group_1368-2" transform="translate(587.056 100.604)">
		<path id="Path_1722" class="st0" d="M20.9,23.2c-3.8-1.8-7.6-4.1-10.2-7.4c-2.9-3.6-1.8-8.4-1.8-8.4l14.8,0c0.2-1,0.7-1.9,1.3-2.7
			c1.9-2,5.1-2.1,7.2-0.2c0.1,0.1,0.1,0.1,0.2,0.2c0.7,0.8,1.2,1.7,1.4,2.7l8,0c0-0.4-0.1-0.7-0.3-1l-3.9-4.7
			c-0.5-0.5-1.2-0.7-1.9-0.3c-3,1.6-6.6,0.4-8.2-2.5c-1.1-2.1-0.9-4.7,0.6-6.6c0.5-0.5,0.5-1.3,0-1.9l-3.9-4.7
			c-0.5-0.6-1.4-0.7-2.1-0.2L-3.8,6.8l0.7,0.9c0.3,0.3,0.3,0.7,0,1c-0.3,0.3-0.7,0.3-1,0c0,0,0,0-0.1-0.1l-0.7-0.9l-9.5,7.9
			c-0.6,0.5-0.7,1.4-0.2,2.1c0,0,0,0,0,0l3.9,4.7c0.5,0.5,1.2,0.7,1.9,0.3c3-1.5,6.6-0.4,8.2,2.5c1.1,2.1,0.9,4.7-0.6,6.6
			c-0.5,0.5-0.5,1.3,0,1.9l3.9,4.7c0.5,0.6,1.4,0.7,2.1,0.2l9.5-7.9l-0.7-0.9c-0.2-0.3-0.2-0.8,0.2-1c0.3-0.2,0.7-0.2,0.9,0.1
			l0.7,0.9l5.4-4.4L20.9,23.2z M0.5,12.8c-0.3,0.2-0.8,0.2-1-0.1l-1.4-1.8c-0.2-0.3-0.2-0.8,0.1-1s0.8-0.2,1,0.1l1.4,1.8
			C0.9,12.1,0.9,12.6,0.5,12.8C0.5,12.8,0.5,12.8,0.5,12.8z M4.1,17.5c-0.3,0.2-0.8,0.2-1-0.1l-1.4-1.8c-0.2-0.3-0.2-0.8,0.1-1
			s0.8-0.2,1,0.1l1.4,1.8C4.5,16.9,4.5,17.3,4.1,17.5C4.1,17.5,4.1,17.5,4.1,17.5L4.1,17.5z M7.7,22.3c-0.3,0.2-0.8,0.2-1-0.1
			l-1.4-1.8c-0.2-0.3-0.2-0.8,0.2-1c0.3-0.2,0.7-0.2,1,0.1l1.4,1.8C8.1,21.6,8.1,22.1,7.7,22.3C7.7,22.3,7.7,22.3,7.7,22.3L7.7,22.3
			z M11.3,27c-0.3,0.2-0.8,0.2-1-0.1L9,25.1c-0.2-0.3-0.2-0.8,0.1-1s0.8-0.2,1,0.1l1.4,1.8C11.7,26.3,11.7,26.8,11.3,27L11.3,27z"/>
		<path id="Path_1723" class="st0" d="M46.4,9.9l-15,0c0,0,0.4-4.3-2.7-4.3c-3.1,0-2.6,4.3-2.6,4.3l-15,0c0,0-0.9,5.8,12.7,11.7
			l-3.1,17.3c2.6,0.8,5.3,1.2,8.1,1.2c2.7,0,5.5-0.4,8.1-1.2l-3.2-17.2C47.3,15.6,46.4,9.9,46.4,9.9z"/>
		<circle id="Ellipse_210" class="st0" cx="-0.6" cy="-4.3" r="4.2"/>
		<circle id="Ellipse_211" class="st0" cx="-0.6" cy="-4.3" r="4.2"/>
		<circle id="Ellipse_212" class="st0" cx="-0.6" cy="-4.3" r="4.2"/>
		<circle id="Ellipse_213" class="st0" cx="-0.6" cy="-4.3" r="4.2"/>
		<circle id="Ellipse_214" class="st0" cx="-0.6" cy="-4.3" r="4.2"/>
		<circle id="Ellipse_215" class="st0" cx="-0.6" cy="-4.3" r="4.2"/>
		<circle id="Ellipse_216" class="st0" cx="-0.6" cy="-4.3" r="4.2"/>
		<circle id="Ellipse_217" class="st0" cx="-0.6" cy="-4.3" r="4.2"/>
		<path id="Path_1724" class="st0" d="M-1-13.6L0-9.9l1.9-3.4L-1-13.6z"/>
		<path id="Path_1725" class="st0" d="M-7.5-10.6l3.4,1.8l-1.1-3.7L-7.5-10.6z"/>
		<path id="Path_1726" class="st0" d="M-9.9-3.8l3.7-1.1l-3.4-1.9L-9.9-3.8z"/>
		<path id="Path_1727" class="st0" d="M-6.8,2.6L-5-0.8l-3.7,1.1L-6.8,2.6z"/>
		<path id="Path_1728" class="st0" d="M5.7-11.2L3.8-7.9l3.7-1.1L5.7-11.2z"/>
	</g>
</g>
</svg>
